
#RECONSTRUCTION PARAMETERS#
wlen            : 633e-9
pixel_pitch     : 2e-6
method          : ASM
zero_pad        : 1
apod            : 0

#ENHANCEMENT PARAMETERS#
perc_clip       : 1
perc_value      : 99
hist_stretch    : 1

#OUTPUT FILE OPTIONS#
save_as_mat     : 0
show            : 0
save_as_image   : 1
bit_depth       : 16
save_intensity  : 0

#BINARY FILE OPTIONS#
offaxisfilter	: h