
#RECONSTRUCTION PARAMETERS#
wlen            : 532e-9
pixel_pitch     : 3.45e-6
method          : Fourier-Fresnel
zero_pad        : 0
apod            : 0

#ENHANCEMENT PARAMETERS#
perc_clip       : 1
perc_value      : 99.95
hist_stretch    : 1

#INTERFERE_IV ONLY OPTIONS#
ref_wave_rad    : 0.6945

#OUTPUT FILE OPTIONS#
save_as_mat     : 0
show            : 0
save_as_image   : 1
bit_depth       : 16
save_intensity  : 0

#BINARY FILE OPTIONS#
offaxisfilter	: v